…
Examples
--------

### Querying HaploReg

#### One or several genetic variants

``` r
library(haploR)
x <- queryHaploreg(query=c("rs10048158","rs4791078"))
x
```

    ## # A tibble: 33 x 33
    ##      chr pos_hg38    r2  `D'` is_query_snp       rsID   ref   alt   AFR
    ##    <dbl>    <dbl> <dbl> <dbl>        <dbl>      <chr> <chr> <chr> <dbl>
    ## 1     17 66213160  0.82  0.93            0  rs4790914     C     G  0.84
    ## 2     17 66213422  0.82  0.93            0  rs4791079     T     G  0.85
    ## 3     17 66213896  0.82  0.93            0  rs4791078     A     C  0.84
    ## 4     17 66214285  0.83  0.93            0  rs1971682     G     C  0.86
    ## 5     17 66216124  0.83  0.93            0  rs4366742     T     C  0.93
    ## 6     17 66219453  0.83  0.93            0  rs2215415     G     A  0.91
    ## 7     17 66220526  0.83  0.93            0  rs3744317     G     A  0.93
    ## 8     17 66227121  0.83  0.94            0  rs8178827     C     T  0.90
    ## 9     17 66230111  0.83  0.93            0 rs71160546    GA     G  0.87
    ## 10    17 66231972  0.82  0.99            0 rs11079645     G     T  0.88
    ## # ... with 23 more rows, and 24 more variables: AMR <dbl>, ASN <dbl>,
    ## #   EUR <dbl>, GERP_cons <dbl>, SiPhy_cons <dbl>, Chromatin_States <chr>,
    ## #   Chromatin_States_Imputed <chr>, Chromatin_Marks <chr>, DNAse <chr>,
    ## #   Proteins <chr>, eQTL <chr>, gwas <chr>, grasp <chr>, Motifs <chr>,
    ## #   GENCODE_id <chr>, GENCODE_name <chr>, GENCODE_direction <dbl>,
    ## #   GENCODE_distance <dbl>, RefSeq_id <chr>, RefSeq_name <chr>,
    ## #   RefSeq_direction <dbl>, RefSeq_distance <dbl>,
    ## #   dbSNP_functional_annotation <chr>, query_snp_rsid <chr>
…
These steps are summarized in a picture below.

#### Uploading file with variants

If you have a file with your SNPs you would like to analyze, you can supply it on an input as follows:

``` r
library(haploR)
x <- queryHaploreg(file=system.file("extdata/snps.txt", package = "haploR"))
x
```

    ## # A tibble: 33 x 33
    ##      chr pos_hg38    r2  `D'` is_query_snp       rsID   ref   alt   AFR
    ##    <dbl>    <dbl> <dbl> <dbl>        <dbl>      <chr> <chr> <chr> <dbl>
    ## 1     17 66213160  0.82  0.93            0  rs4790914     C     G  0.84
    ## 2     17 66213422  0.82  0.93            0  rs4791079     T     G  0.85
    ## 3     17 66213896  0.82  0.93            0  rs4791078     A     C  0.84
    ## 4     17 66214285  0.83  0.93            0  rs1971682     G     C  0.86
    ## 5     17 66216124  0.83  0.93            0  rs4366742     T     C  0.93
    ## 6     17 66219453  0.83  0.93            0  rs2215415     G     A  0.91
    ## 7     17 66220526  0.83  0.93            0  rs3744317     G     A  0.93
    ## 8     17 66227121  0.83  0.94            0  rs8178827     C     T  0.90
    ## 9     17 66230111  0.83  0.93            0 rs71160546    GA     G  0.87
    ## 10    17 66231972  0.82  0.99            0 rs11079645     G     T  0.88
    ## # ... with 23 more rows, and 24 more variables: AMR <dbl>, ASN <dbl>,
    ## #   EUR <dbl>, GERP_cons <dbl>, SiPhy_cons <dbl>, Chromatin_States <chr>,
    ## #   Chromatin_States_Imputed <chr>, Chromatin_Marks <chr>, DNAse <chr>,
    ## #   Proteins <chr>, eQTL <chr>, gwas <chr>, grasp <chr>, Motifs <chr>,
    ## #   GENCODE_id <chr>, GENCODE_name <chr>, GENCODE_direction <dbl>,
    ## #   GENCODE_distance <dbl>, RefSeq_id <chr>, RefSeq_name <chr>,
    ## #   RefSeq_direction <dbl>, RefSeq_distance <dbl>,
    ## #   dbSNP_functional_annotation <chr>, query_snp_rsid <chr>
…
    ## $name
    ## [1] "5-HTT brain serotonin transporter levels (Liu X, 2011, 1 SNP)"
    ## 
    ## $id
    ## [1] "2362"

``` r
# Query Hploreg to explore results from 
# this study:
x <- queryHaploreg(study=studies[[1]])
x
```

    ## # A tibble: 117 x 33
    ##      chr pos_hg38    r2  `D'` is_query_snp       rsID   ref   alt   AFR
    ##    <dbl>    <dbl> <dbl> <dbl>        <dbl>      <chr> <chr> <chr> <dbl>
    ## 1     11 34524785  0.97  1.00            0   rs836138     C     A  0.34
    ## 2     11 34524788  0.87  0.97            0 rs11032744     C     T  0.04
    ## 3     11 34526877  1.00  1.00            0   rs836137     A     G  0.37
    ## 4     11 34527359  1.00  1.00            0   rs836135     G     A  0.36
    ## 5     11 34527815  1.00  1.00            0   rs704727     T     A  0.16
    ## 6     11 34530979  0.96  0.99            0   rs836133     C     T  0.16
    ## 7     11 34531545  0.90  1.00            0 rs77003093     C     T  0.01
    ## 8     11 34533644  1.00  1.00            1   rs836132     G     A  0.16
    ## 9     11 34534390  1.00  1.00            0   rs836131     C     T  0.16
    ## 10    11 34535548  1.00  1.00            0   rs836130     G     T  0.36
    ## # ... with 107 more rows, and 24 more variables: AMR <dbl>, ASN <dbl>,
    ## #   EUR <dbl>, GERP_cons <dbl>, SiPhy_cons <dbl>, Chromatin_States <chr>,
    ## #   Chromatin_States_Imputed <chr>, Chromatin_Marks <chr>, DNAse <chr>,
    ## #   Proteins <chr>, eQTL <chr>, gwas <chr>, grasp <chr>, Motifs <chr>,
    ## #   GENCODE_id <chr>, GENCODE_name <chr>, GENCODE_direction <dbl>,
    ## #   GENCODE_distance <dbl>, RefSeq_id <chr>, RefSeq_name <chr>,
    ## #   RefSeq_direction <dbl>, RefSeq_distance <dbl>,
    ## #   dbSNP_functional_annotation <chr>, query_snp_rsid <chr>
…
